EESchema Schematic File Version 2
LIBS:r
LIBS:led
LIBS:powered
LIBS:micro_usb_b
LIBS:pwr
LIBS:c
LIBS:kl25-32
LIBS:testpoint
LIBS:varistor
LIBS:gencon
EELAYER 24 0
EELAYER END
$Descr A4 11693 8268
encoding utf-8
Sheet 1 1
Title ""
Date "3 feb 2014"
Rev ""
Comp ""
Comment1 ""
Comment2 ""
Comment3 ""
Comment4 ""
$EndDescr
$Comp
L CONN_1 CON5
U 1 1 52ED4993
P 4500 1700
F 0 "CON5" H 4500 1800 60  0000 C CNN
F 1 "CONN_1" H 4500 1600 60  0000 C CNN
F 2 "" H 4500 1700 60  0000 C CNN
F 3 "" H 4500 1700 60  0000 C CNN
	1    4500 1700
	0    -1   -1   0   
$EndComp
$Comp
L CONN_8 CON12
U 1 1 52ED49A2
P 8200 5050
F 0 "CON12" H 8200 5500 60  0000 C CNN
F 1 "CONN_8" H 8200 4600 60  0000 C CNN
F 2 "" H 8200 5050 60  0000 C CNN
F 3 "" H 8200 5050 60  0000 C CNN
	1    8200 5050
	1    0    0    -1  
$EndComp
$Comp
L CONN_5 CON11
U 1 1 52ED49B1
P 8200 4000
F 0 "CON11" H 8200 4300 60  0000 C CNN
F 1 "CONN_5" H 8200 3700 60  0000 C CNN
F 2 "" H 8200 4000 60  0000 C CNN
F 3 "" H 8200 4000 60  0000 C CNN
	1    8200 4000
	1    0    0    -1  
$EndComp
$Comp
L R R1
U 1 1 52ED49C0
P 9000 1950
F 0 "R1" H 9130 2000 60  0000 C CNN
F 1 "120" H 9150 1900 60  0000 C CNN
F 2 "" H 9000 1950 60  0000 C CNN
F 3 "" H 9000 1950 60  0000 C CNN
	1    9000 1950
	1    0    0    -1  
$EndComp
$Comp
L LED D1
U 1 1 52ED49CF
P 9000 2600
F 0 "D1" H 9000 2700 60  0000 C CNN
F 1 "LED" H 9000 2500 60  0000 C CNN
F 2 "" H 9000 2600 60  0000 C CNN
F 3 "" H 9000 2600 60  0000 C CNN
	1    9000 2600
	0    1    1    0   
$EndComp
$Comp
L CONN_1 CON6
U 1 1 52ED49F5
P 4900 1700
F 0 "CON6" H 4900 1800 60  0000 C CNN
F 1 "CONN_1" H 4900 1600 60  0000 C CNN
F 2 "" H 4900 1700 60  0000 C CNN
F 3 "" H 4900 1700 60  0000 C CNN
	1    4900 1700
	0    -1   -1   0   
$EndComp
$Comp
L CONN_1 CON8
U 1 1 52ED49FF
P 5100 2300
F 0 "CON8" H 5100 2400 60  0000 C CNN
F 1 "CONN_1" H 5100 2200 60  0000 C CNN
F 2 "" H 5100 2300 60  0000 C CNN
F 3 "" H 5100 2300 60  0000 C CNN
	1    5100 2300
	0    -1   -1   0   
$EndComp
$Comp
L CONN_1 CON1
U 1 1 52ED4A05
P 5300 1100
F 0 "CON1" H 5300 1200 60  0000 C CNN
F 1 "CONN_1" H 5300 1000 60  0000 C CNN
F 2 "" H 5300 1100 60  0000 C CNN
F 3 "" H 5300 1100 60  0000 C CNN
	1    5300 1100
	0    -1   -1   0   
$EndComp
$Comp
L CONN_1 CON9
U 1 1 52ED4A18
P 5500 2300
F 0 "CON9" H 5500 2400 60  0000 C CNN
F 1 "CONN_1" H 5500 2200 60  0000 C CNN
F 2 "" H 5500 2300 60  0000 C CNN
F 3 "" H 5500 2300 60  0000 C CNN
	1    5500 2300
	0    -1   -1   0   
$EndComp
$Comp
L CONN_1 CON3
U 1 1 52ED4A23
P 5700 1200
F 0 "CON3" H 5700 1300 60  0000 C CNN
F 1 "CONN_1" H 5700 1100 60  0000 C CNN
F 2 "" H 5700 1200 60  0000 C CNN
F 3 "" H 5700 1200 60  0000 C CNN
	1    5700 1200
	0    -1   -1   0   
$EndComp
$Comp
L CONN_1 CON10
U 1 1 52ED4A31
P 5900 2300
F 0 "CON10" H 5900 2400 60  0000 C CNN
F 1 "CONN_1" H 5900 2200 60  0000 C CNN
F 2 "" H 5900 2300 60  0000 C CNN
F 3 "" H 5900 2300 60  0000 C CNN
	1    5900 2300
	0    -1   -1   0   
$EndComp
$Comp
L CONN_1 CON7
U 1 1 52ED4A3F
P 6100 1700
F 0 "CON7" H 6100 1800 60  0000 C CNN
F 1 "CONN_1" H 6100 1600 60  0000 C CNN
F 2 "" H 6100 1700 60  0000 C CNN
F 3 "" H 6100 1700 60  0000 C CNN
	1    6100 1700
	0    -1   -1   0   
$EndComp
$Comp
L CONN_1 CON4
U 1 1 52ED4A46
P 6300 1200
F 0 "CON4" H 6300 1300 60  0000 C CNN
F 1 "CONN_1" H 6300 1100 60  0000 C CNN
F 2 "" H 6300 1200 60  0000 C CNN
F 3 "" H 6300 1200 60  0000 C CNN
	1    6300 1200
	0    -1   -1   0   
$EndComp
$Comp
L CONN_1 CON2
U 1 1 52ED4A4E
P 6600 1100
F 0 "CON2" H 6600 1200 60  0000 C CNN
F 1 "CONN_1" H 6600 1000 60  0000 C CNN
F 2 "" H 6600 1100 60  0000 C CNN
F 3 "" H 6600 1100 60  0000 C CNN
	1    6600 1100
	0    -1   -1   0   
$EndComp
Wire Wire Line
	5300 1500 5300 5700
Wire Wire Line
	5500 2700 5500 5700
Wire Wire Line
	5700 1600 5700 5700
Wire Wire Line
	5900 5700 5900 2700
Wire Wire Line
	6100 2100 6100 5700
Wire Wire Line
	6300 1600 6300 5700
Wire Wire Line
	6500 5700 6500 2700
Wire Wire Line
	6500 2700 6600 2700
Wire Wire Line
	6600 2700 6600 1500
Wire Wire Line
	5100 5700 5100 2700
Wire Wire Line
	4900 5700 4900 2100
Wire Wire Line
	4700 5700 4700 2700
Wire Wire Line
	4700 2700 4500 2700
Wire Wire Line
	4500 2700 4500 2100
Text Label 4700 3400 1    60   ~ 0
DC
Text Label 4900 3400 1    60   ~ 0
RF_RESET
Text Label 5100 3400 1    60   ~ 0
DD
Text Label 5300 3400 1    60   ~ 0
GND
Text Label 5500 3400 1    60   ~ 0
nRESET
Text Label 5700 3400 1    60   ~ 0
3V3
Text Label 5900 3400 1    60   ~ 0
CLK
Text Label 6100 3400 1    60   ~ 0
SWD_DIO
Text Label 6300 3400 1    60   ~ 0
SWD_CLK
Text Label 6500 3400 1    60   ~ 0
VBUS
Wire Wire Line
	4700 4700 7800 4700
Wire Wire Line
	5100 4800 7800 4800
Wire Wire Line
	4900 4900 7800 4900
Wire Wire Line
	5700 5000 7800 5000
Wire Wire Line
	5500 5100 7800 5100
Wire Wire Line
	5300 5200 7800 5200
Wire Wire Line
	6300 5300 7800 5300
Wire Wire Line
	6100 5400 7800 5400
Text Label 7400 5000 0    60   ~ 0
VDD
Wire Wire Line
	5300 3800 7800 3800
Wire Wire Line
	5700 3900 7800 3900
Wire Wire Line
	5500 4000 7800 4000
Wire Wire Line
	6300 4100 7800 4100
Wire Wire Line
	6100 4200 7800 4200
Text Label 7200 3900 0    60   ~ 0
3V3
Text Label 7200 3800 0    60   ~ 0
GND
Text Label 7200 4000 0    60   ~ 0
nRESET
Text Label 7200 4100 0    60   ~ 0
SWD_CLK
Text Label 7200 4200 0    60   ~ 0
SWD_DIO
Connection ~ 5300 3800
Connection ~ 5700 3900
Connection ~ 5500 4000
Connection ~ 6300 4100
Connection ~ 6100 4200
Connection ~ 5700 5000
Connection ~ 5300 5200
$Comp
L GND #PWR01
U 1 1 52ED4E1B
P 5300 5700
F 0 "#PWR01" H 5300 5700 30  0001 C CNN
F 1 "GND" H 5300 5630 30  0001 C CNN
F 2 "" H 5300 5700 60  0000 C CNN
F 3 "" H 5300 5700 60  0000 C CNN
	1    5300 5700
	1    0    0    -1  
$EndComp
Wire Wire Line
	9000 2200 9000 2400
Wire Wire Line
	9000 3000 9000 2800
Wire Wire Line
	9000 1100 9000 1700
$Comp
L GND #PWR02
U 1 1 52ED4E9E
P 9000 3000
F 0 "#PWR02" H 9000 3000 30  0001 C CNN
F 1 "GND" H 9000 2930 30  0001 C CNN
F 2 "" H 9000 3000 60  0000 C CNN
F 3 "" H 9000 3000 60  0000 C CNN
	1    9000 3000
	1    0    0    -1  
$EndComp
Text Label 9000 1500 1    60   ~ 0
3V3
Connection ~ 4700 4700
Connection ~ 5100 4800
Connection ~ 4900 4900
Connection ~ 5500 5100
Connection ~ 6300 5300
Connection ~ 6100 5400
Text Notes 7400 4700 0    60   ~ 0
DAT2
Text Notes 7400 4800 0    60   ~ 0
DAT3
Text Notes 7400 4900 0    60   ~ 0
CMD
Text Notes 7400 5100 0    60   ~ 0
SD_CLK
Text Notes 7400 5200 0    60   ~ 0
GND
Text Notes 7400 5300 0    60   ~ 0
DAT0
Text Notes 7400 5400 0    60   ~ 0
DAT1
$EndSCHEMATC
