EESchema Schematic File Version 2
LIBS:gencon
LIBS:touch-cache
EELAYER 24 0
EELAYER END
$Descr A4 11693 8268
encoding utf-8
Sheet 1 1
Title ""
Date "27 apr 2014"
Rev ""
Comp ""
Comment1 ""
Comment2 ""
Comment3 ""
Comment4 ""
$EndDescr
$Comp
L CONN_2 CON2
U 1 1 535CF3D8
P 6800 5150
F 0 "CON2" H 6800 5300 60  0000 C CNN
F 1 "CONN_2" H 6800 5000 60  0000 C CNN
F 2 "" H 6800 5150 60  0000 C CNN
F 3 "" H 6800 5150 60  0000 C CNN
	1    6800 5150
	1    0    0    -1  
$EndComp
$Comp
L CONN_4 CON1
U 1 1 535CF3E7
P 6800 3950
F 0 "CON1" H 6800 4200 60  0000 C CNN
F 1 "CONN_4" H 6800 3700 60  0000 C CNN
F 2 "" H 6800 3950 60  0000 C CNN
F 3 "" H 6800 3950 60  0000 C CNN
	1    6800 3950
	1    0    0    -1  
$EndComp
Wire Notes Line
	2900 5400 4900 5400
Wire Notes Line
	4900 5400 4900 5000
Wire Notes Line
	4900 5000 2900 5400
Wire Notes Line
	4900 4900 2900 4900
Wire Notes Line
	2900 4900 2900 5300
Wire Notes Line
	2900 5300 4900 4900
Wire Notes Line
	3500 3200 2900 3500
Wire Notes Line
	3600 3200 3500 3200
Wire Notes Line
	3600 3500 3600 3200
Wire Notes Line
	4200 3200 3600 3500
Wire Notes Line
	4300 3200 4200 3200
Wire Notes Line
	4300 3500 4300 3200
Wire Notes Line
	4900 3200 4300 3500
Wire Notes Line
	4900 3100 4900 3200
Wire Notes Line
	4900 3300 4300 3600
Wire Notes Line
	4900 3600 4900 3300
Wire Notes Line
	4300 3600 4900 3600
Wire Notes Line
	4200 3300 3600 3600
Wire Notes Line
	4200 3600 4200 3300
Wire Notes Line
	3600 3600 4200 3600
Wire Notes Line
	3500 3300 2900 3600
Wire Notes Line
	3500 3600 3500 3300
Wire Notes Line
	2900 3600 3500 3600
Wire Notes Line
	2900 3100 4900 3100
Wire Notes Line
	2900 3500 2900 3100
Wire Wire Line
	6400 4100 3250 4100
Wire Wire Line
	3250 4100 3250 3600
Wire Wire Line
	6400 4000 3900 4000
Wire Wire Line
	3900 4000 3900 3600
Wire Wire Line
	6400 3900 4600 3900
Wire Wire Line
	4600 3900 4600 3600
Wire Wire Line
	6400 3800 5400 3800
Wire Wire Line
	5400 3800 5400 3150
Wire Wire Line
	5400 3150 4900 3150
Wire Wire Line
	6400 5200 4900 5200
Wire Wire Line
	6400 5100 5400 5100
Wire Wire Line
	5400 5100 5400 4900
Wire Wire Line
	5400 4900 4900 4900
Text Label 5700 3900 0    60   ~ 0
A1
Text Label 5700 4000 0    60   ~ 0
A2
Text Label 5700 4100 0    60   ~ 0
A3
Text Label 5700 3800 0    60   ~ 0
ACOM
Text Label 5700 5100 0    60   ~ 0
B1
Text Label 5700 5200 0    60   ~ 0
B2
$EndSCHEMATC
