EESchema Schematic File Version 2
LIBS:r
LIBS:led
LIBS:powered
LIBS:micro_usb_b
LIBS:usb-a-s4
LIBS:device_sot
LIBS:pwr
LIBS:c
LIBS:kl25-32
LIBS:cc2543
LIBS:balun-smt6
LIBS:xtal-4
LIBS:testpoint
LIBS:varistor
LIBS:antenna
LIBS:switch
LIBS:ybox-cache
EELAYER 24 0
EELAYER END
$Descr A4 11693 8268
encoding utf-8
Sheet 2 3
Title ""
Date "25 jan 2014"
Rev ""
Comp ""
Comment1 ""
Comment2 ""
Comment3 ""
Comment4 ""
$EndDescr
$Comp
L R R3
U 1 1 52CE0ED1
P 9900 5350
F 0 "R3" H 10030 5400 60  0000 C CNN
F 1 "150" H 10050 5300 60  0000 C CNN
F 2 "" H 9900 5350 60  0000 C CNN
F 3 "" H 9900 5350 60  0000 C CNN
	1    9900 5350
	1    0    0    -1  
$EndComp
$Comp
L LED D1
U 1 1 52CE0ED7
P 9900 6400
F 0 "D1" H 9900 6500 60  0000 C CNN
F 1 "LTST-C190KAKT" H 9900 6250 60  0000 C CNN
F 2 "" H 9900 6400 60  0000 C CNN
F 3 "" H 9900 6400 60  0000 C CNN
	1    9900 6400
	0    -1   1    0   
$EndComp
$Comp
L GND #PWR012
U 1 1 52CE0EDD
P 9900 6800
F 0 "#PWR012" H 9900 6800 30  0001 C CNN
F 1 "GND" H 9900 6730 30  0001 C CNN
F 2 "" H 9900 6800 60  0000 C CNN
F 3 "" H 9900 6800 60  0000 C CNN
	1    9900 6800
	1    0    0    -1  
$EndComp
Wire Wire Line
	9900 5600 9900 6200
Wire Wire Line
	9900 6600 9900 6800
Wire Wire Line
	9900 4400 9900 5100
Text Label 9900 4900 1    60   ~ 0
RF_LED
$Comp
L CC2543 U1
U 1 1 52CE262D
P 4100 3400
F 0 "U1" H 3150 4450 60  0000 C CNN
F 1 "CC2543" H 4100 3400 60  0000 C CNN
F 2 "~" H 4100 3400 60  0000 C CNN
F 3 "~" H 4100 3400 60  0000 C CNN
	1    4100 3400
	1    0    0    -1  
$EndComp
Text HLabel 4200 7350 3    60   Input ~ 0
RF_RESET
Text HLabel 800  3050 0    60   3State ~ 0
DD
Text HLabel 4350 7350 3    60   3State ~ 0
DC
Text HLabel 2600 3950 0    60   Input ~ 0
MOSI
Text HLabel 2600 4900 0    60   Output ~ 0
MISO
Text HLabel 2600 3800 0    60   Input ~ 0
nSEL
Text HLabel 2600 3650 0    60   Input ~ 0
SCLK
$Comp
L BALUN-SMT6 B1
U 1 1 52CE26A6
P 8600 3400
F 0 "B1" H 8700 3750 60  0000 C CNN
F 1 "2450BM15A0002" H 8600 2950 60  0000 C CNN
F 2 "" H 8600 3400 60  0000 C CNN
F 3 "" H 8600 3400 60  0000 C CNN
	1    8600 3400
	-1   0    0    -1  
$EndComp
$Comp
L C C3
U 1 1 52CE26C1
P 9700 3600
F 0 "C3" H 9750 3700 60  0000 L CNN
F 1 "NC" H 9750 3500 60  0000 L CNN
F 2 "" H 9700 3600 60  0000 C CNN
F 3 "" H 9700 3600 60  0000 C CNN
	1    9700 3600
	1    0    0    -1  
$EndComp
$Comp
L R R2
U 1 1 52CE26D0
P 10150 3200
F 0 "R2" H 10280 3250 60  0000 C CNN
F 1 "0" H 10300 3150 60  0000 C CNN
F 2 "" H 10150 3200 60  0000 C CNN
F 3 "" H 10150 3200 60  0000 C CNN
	1    10150 3200
	0    -1   -1   0   
$EndComp
$Comp
L XTAL-4 X1
U 1 1 52CE26E4
P 5750 5200
F 0 "X1" H 5750 5550 60  0000 C CNN
F 1 "32MHz" H 5750 5450 60  0000 C CNN
F 2 "" H 5750 5200 60  0000 C CNN
F 3 "" H 5750 5200 60  0000 C CNN
F 4 "8pF" H 5500 4200 60  0000 L CNN "Field4"
F 5 "40ppm" H 5500 4100 60  0000 L CNN "Field5"
F 6 "ESR<=60R" H 5500 4000 60  0000 L CNN "Field6"
	1    5750 5200
	1    0    0    -1  
$EndComp
$Comp
L C C8
U 1 1 52CE26F3
P 6400 5600
F 0 "C8" H 6450 5700 60  0000 L CNN
F 1 "12pF" H 6450 5500 60  0000 L CNN
F 2 "" H 6400 5600 60  0000 C CNN
F 3 "" H 6400 5600 60  0000 C CNN
	1    6400 5600
	1    0    0    -1  
$EndComp
$Comp
L C C7
U 1 1 52CE2702
P 5100 5600
F 0 "C7" H 5150 5700 60  0000 L CNN
F 1 "12pF" H 5150 5500 60  0000 L CNN
F 2 "" H 5100 5600 60  0000 C CNN
F 3 "" H 5100 5600 60  0000 C CNN
	1    5100 5600
	1    0    0    -1  
$EndComp
$Comp
L TESTPOINT TP1
U 1 1 52CE275A
P 1000 2700
F 0 "TP1" H 1000 2950 60  0000 C CNN
F 1 "TESTPOINT" H 1000 2650 60  0001 C CNN
F 2 "" H 1000 2700 60  0000 C CNN
F 3 "" H 1000 2700 60  0000 C CNN
	1    1000 2700
	1    0    0    -1  
$EndComp
$Comp
L TESTPOINT TP3
U 1 1 52CE2769
P 4000 7150
F 0 "TP3" H 4000 7400 60  0000 C CNN
F 1 "TESTPOINT" H 4000 7100 60  0001 C CNN
F 2 "" H 4000 7150 60  0000 C CNN
F 3 "" H 4000 7150 60  0000 C CNN
	1    4000 7150
	0    -1   -1   0   
$EndComp
$Comp
L TESTPOINT TP2
U 1 1 52CE2778
P 1300 2700
F 0 "TP2" H 1300 2950 60  0000 C CNN
F 1 "TESTPOINT" H 1300 2650 60  0001 C CNN
F 2 "" H 1300 2700 60  0000 C CNN
F 3 "" H 1300 2700 60  0000 C CNN
	1    1300 2700
	1    0    0    -1  
$EndComp
$Comp
L TESTPOINT TP4
U 1 1 52CE2787
P 4550 7150
F 0 "TP4" H 4550 7400 60  0000 C CNN
F 1 "TESTPOINT" H 4550 7100 60  0001 C CNN
F 2 "" H 4550 7150 60  0000 C CNN
F 3 "" H 4550 7150 60  0000 C CNN
	1    4550 7150
	0    1    1    0   
$EndComp
Wire Wire Line
	4200 1500 4200 2100
Text Label 4200 1900 1    60   ~ 0
RF_LED
$Comp
L R R1
U 1 1 52CE50F7
P 4650 1350
F 0 "R1" H 4780 1400 60  0000 C CNN
F 1 "56k/1%" H 4750 1300 60  0000 L CNN
F 2 "" H 4650 1350 60  0000 C CNN
F 3 "" H 4650 1350 60  0000 C CNN
	1    4650 1350
	1    0    0    -1  
$EndComp
Wire Wire Line
	4650 1600 4650 2100
Wire Wire Line
	2600 3650 2800 3650
Wire Wire Line
	2600 3800 2800 3800
Wire Wire Line
	2600 3950 2800 3950
Wire Wire Line
	800  3050 2800 3050
Wire Wire Line
	4200 4700 4200 7350
Wire Wire Line
	4350 4700 4350 7350
Wire Wire Line
	1000 2700 1000 3050
Connection ~ 1000 3050
Text HLabel 800  2900 0    60   Output ~ 0
CLK
Wire Wire Line
	800  2900 1700 2900
Wire Wire Line
	1300 2900 1300 2700
Connection ~ 1300 2900
NoConn ~ 2800 3200
NoConn ~ 2800 3350
Wire Wire Line
	4000 7150 4200 7150
Connection ~ 4200 7150
Wire Wire Line
	4550 7150 4350 7150
Connection ~ 4350 7150
Wire Wire Line
	5400 3350 7800 3350
Wire Wire Line
	7800 3350 7800 3200
Wire Wire Line
	7800 3200 8200 3200
Wire Wire Line
	5400 3500 7800 3500
Wire Wire Line
	7800 3500 7800 3600
Wire Wire Line
	7800 3600 8200 3600
Wire Wire Line
	9000 3200 9900 3200
Wire Wire Line
	9700 3400 9700 3200
Connection ~ 9700 3200
$Comp
L GND #PWR013
U 1 1 52CE387B
P 4850 4900
F 0 "#PWR013" H 4850 4900 30  0001 C CNN
F 1 "GND" H 4850 4830 30  0001 C CNN
F 2 "" H 4850 4900 60  0000 C CNN
F 3 "" H 4850 4900 60  0000 C CNN
	1    4850 4900
	1    0    0    -1  
$EndComp
$Comp
L GND #PWR014
U 1 1 52CE3881
P 5600 4100
F 0 "#PWR014" H 5600 4100 30  0001 C CNN
F 1 "GND" H 5600 4030 30  0001 C CNN
F 2 "" H 5600 4100 60  0000 C CNN
F 3 "" H 5600 4100 60  0000 C CNN
	1    5600 4100
	1    0    0    -1  
$EndComp
Wire Wire Line
	5600 3200 5600 4100
Wire Wire Line
	5600 3200 5400 3200
Wire Wire Line
	5400 3650 5600 3650
Connection ~ 5600 3650
Wire Wire Line
	4850 4700 4850 4900
$Comp
L GND #PWR015
U 1 1 52CE3926
P 5100 6000
F 0 "#PWR015" H 5100 6000 30  0001 C CNN
F 1 "GND" H 5100 5930 30  0001 C CNN
F 2 "" H 5100 6000 60  0000 C CNN
F 3 "" H 5100 6000 60  0000 C CNN
	1    5100 6000
	1    0    0    -1  
$EndComp
$Comp
L GND #PWR016
U 1 1 52CE392C
P 6400 6000
F 0 "#PWR016" H 6400 6000 30  0001 C CNN
F 1 "GND" H 6400 5930 30  0001 C CNN
F 2 "" H 6400 6000 60  0000 C CNN
F 3 "" H 6400 6000 60  0000 C CNN
	1    6400 6000
	1    0    0    -1  
$EndComp
Wire Wire Line
	4650 4700 4650 5200
Wire Wire Line
	4650 5200 5300 5200
Wire Wire Line
	5400 3950 6400 3950
Wire Wire Line
	6400 3950 6400 5400
Wire Wire Line
	6200 5200 6400 5200
Connection ~ 6400 5200
Wire Wire Line
	5100 5400 5100 5200
Connection ~ 5100 5200
Wire Wire Line
	5100 5800 5100 6000
Wire Wire Line
	6400 5800 6400 6000
$Comp
L GND #PWR017
U 1 1 52CE3A27
P 3750 1900
F 0 "#PWR017" H 3750 1900 30  0001 C CNN
F 1 "GND" H 3750 1830 30  0001 C CNN
F 2 "" H 3750 1900 60  0000 C CNN
F 3 "" H 3750 1900 60  0000 C CNN
	1    3750 1900
	-1   0    0    1   
$EndComp
Wire Wire Line
	3750 1900 3750 2100
$Comp
L C C10
U 1 1 52CE3A65
P 4700 6500
F 0 "C10" H 4750 6600 60  0000 L CNN
F 1 "100nF" H 4750 6400 60  0000 L CNN
F 2 "" H 4700 6500 60  0000 C CNN
F 3 "" H 4700 6500 60  0000 C CNN
	1    4700 6500
	1    0    0    -1  
$EndComp
$Comp
L C C9
U 1 1 52CE3A72
P 3850 6500
F 0 "C9" H 3900 6600 60  0000 L CNN
F 1 "100nF" H 3900 6400 60  0000 L CNN
F 2 "" H 3850 6500 60  0000 C CNN
F 3 "" H 3850 6500 60  0000 C CNN
	1    3850 6500
	1    0    0    -1  
$EndComp
$Comp
L GND #PWR018
U 1 1 52CE3A78
P 8000 4000
F 0 "#PWR018" H 8000 4000 30  0001 C CNN
F 1 "GND" H 8000 3930 30  0001 C CNN
F 2 "" H 8000 4000 60  0000 C CNN
F 3 "" H 8000 4000 60  0000 C CNN
	1    8000 4000
	1    0    0    -1  
$EndComp
$Comp
L GND #PWR019
U 1 1 52CE3A7E
P 9700 4000
F 0 "#PWR019" H 9700 4000 30  0001 C CNN
F 1 "GND" H 9700 3930 30  0001 C CNN
F 2 "" H 9700 4000 60  0000 C CNN
F 3 "" H 9700 4000 60  0000 C CNN
	1    9700 4000
	1    0    0    -1  
$EndComp
$Comp
L GND #PWR020
U 1 1 52CE3A84
P 9200 4000
F 0 "#PWR020" H 9200 4000 30  0001 C CNN
F 1 "GND" H 9200 3930 30  0001 C CNN
F 2 "" H 9200 4000 60  0000 C CNN
F 3 "" H 9200 4000 60  0000 C CNN
	1    9200 4000
	1    0    0    -1  
$EndComp
Wire Wire Line
	8000 4000 8000 3400
Wire Wire Line
	8000 3400 8200 3400
Wire Wire Line
	9000 3600 9200 3600
Wire Wire Line
	9200 3600 9200 4000
Wire Wire Line
	9000 3700 9200 3700
Connection ~ 9200 3700
Wire Wire Line
	9700 3800 9700 4000
$Comp
L GND #PWR021
U 1 1 52CE3B95
P 3850 6900
F 0 "#PWR021" H 3850 6900 30  0001 C CNN
F 1 "GND" H 3850 6830 30  0001 C CNN
F 2 "" H 3850 6900 60  0000 C CNN
F 3 "" H 3850 6900 60  0000 C CNN
	1    3850 6900
	1    0    0    -1  
$EndComp
$Comp
L GND #PWR022
U 1 1 52CE3B9B
P 4700 6900
F 0 "#PWR022" H 4700 6900 30  0001 C CNN
F 1 "GND" H 4700 6830 30  0001 C CNN
F 2 "" H 4700 6900 60  0000 C CNN
F 3 "" H 4700 6900 60  0000 C CNN
	1    4700 6900
	1    0    0    -1  
$EndComp
Wire Wire Line
	4700 6700 4700 6900
Wire Wire Line
	3850 6700 3850 6900
$Comp
L GND #PWR023
U 1 1 52CE3CB2
P 5600 6000
F 0 "#PWR023" H 5600 6000 30  0001 C CNN
F 1 "GND" H 5600 5930 30  0001 C CNN
F 2 "" H 5600 6000 60  0000 C CNN
F 3 "" H 5600 6000 60  0000 C CNN
	1    5600 6000
	1    0    0    -1  
$EndComp
$Comp
L GND #PWR024
U 1 1 52CE3CB8
P 5900 6000
F 0 "#PWR024" H 5900 6000 30  0001 C CNN
F 1 "GND" H 5900 5930 30  0001 C CNN
F 2 "" H 5900 6000 60  0000 C CNN
F 3 "" H 5900 6000 60  0000 C CNN
	1    5900 6000
	1    0    0    -1  
$EndComp
Wire Wire Line
	5900 5600 5900 6000
Wire Wire Line
	5600 5600 5600 6000
$Comp
L C C4
U 1 1 52CE3D59
P 6700 4300
F 0 "C4" H 6750 4400 60  0000 L CNN
F 1 "100nF" H 6750 4200 60  0000 L CNN
F 2 "" H 6700 4300 60  0000 C CNN
F 3 "" H 6700 4300 60  0000 C CNN
	1    6700 4300
	1    0    0    -1  
$EndComp
$Comp
L C C5
U 1 1 52CE3D69
P 7100 4300
F 0 "C5" H 7150 4400 60  0000 L CNN
F 1 "220pF" H 7150 4200 60  0000 L CNN
F 2 "" H 7100 4300 60  0000 C CNN
F 3 "" H 7100 4300 60  0000 C CNN
	1    7100 4300
	1    0    0    -1  
$EndComp
Wire Wire Line
	4500 4700 4500 6100
Wire Wire Line
	4500 6100 4700 6100
Wire Wire Line
	4700 5900 4700 6300
Wire Wire Line
	4050 4700 4050 6100
Wire Wire Line
	4050 6100 3850 6100
Wire Wire Line
	3850 5900 3850 6300
Wire Wire Line
	5400 3800 6700 3800
Wire Wire Line
	6700 2900 6700 4100
Wire Wire Line
	5400 3050 7100 3050
Wire Wire Line
	7100 2900 7100 4100
Wire Wire Line
	5400 2900 5600 2900
Wire Wire Line
	5600 2900 5600 3050
Connection ~ 5600 3050
$Comp
L C C6
U 1 1 52CE3ED8
P 7450 4300
F 0 "C6" H 7500 4400 60  0000 L CNN
F 1 "100nF" H 7500 4200 60  0000 L CNN
F 2 "" H 7450 4300 60  0000 C CNN
F 3 "" H 7450 4300 60  0000 C CNN
	1    7450 4300
	1    0    0    -1  
$EndComp
Wire Wire Line
	7100 3900 7450 3900
Wire Wire Line
	7450 3900 7450 4100
Connection ~ 7100 3900
$Comp
L GND #PWR025
U 1 1 52CE3F82
P 6700 4700
F 0 "#PWR025" H 6700 4700 30  0001 C CNN
F 1 "GND" H 6700 4630 30  0001 C CNN
F 2 "" H 6700 4700 60  0000 C CNN
F 3 "" H 6700 4700 60  0000 C CNN
	1    6700 4700
	1    0    0    -1  
$EndComp
$Comp
L GND #PWR026
U 1 1 52CE3F88
P 7100 4700
F 0 "#PWR026" H 7100 4700 30  0001 C CNN
F 1 "GND" H 7100 4630 30  0001 C CNN
F 2 "" H 7100 4700 60  0000 C CNN
F 3 "" H 7100 4700 60  0000 C CNN
	1    7100 4700
	1    0    0    -1  
$EndComp
$Comp
L GND #PWR027
U 1 1 52CE3F8E
P 7450 4700
F 0 "#PWR027" H 7450 4700 30  0001 C CNN
F 1 "GND" H 7450 4630 30  0001 C CNN
F 2 "" H 7450 4700 60  0000 C CNN
F 3 "" H 7450 4700 60  0000 C CNN
	1    7450 4700
	1    0    0    -1  
$EndComp
Wire Wire Line
	6700 4500 6700 4700
Wire Wire Line
	7100 4500 7100 4700
Wire Wire Line
	7450 4500 7450 4700
$Comp
L C C2
U 1 1 52CE4084
P 3100 1600
F 0 "C2" H 3150 1700 60  0000 L CNN
F 1 "1uF" H 3150 1500 60  0000 L CNN
F 2 "" H 3100 1600 60  0000 C CNN
F 3 "" H 3100 1600 60  0000 C CNN
	1    3100 1600
	1    0    0    -1  
$EndComp
$Comp
L C C1
U 1 1 52CE408A
P 2600 1600
F 0 "C1" H 2650 1700 60  0000 L CNN
F 1 "100nF" H 2650 1500 60  0000 L CNN
F 2 "" H 2600 1600 60  0000 C CNN
F 3 "" H 2600 1600 60  0000 C CNN
	1    2600 1600
	1    0    0    -1  
$EndComp
$Comp
L GND #PWR028
U 1 1 52CE4090
P 2600 2000
F 0 "#PWR028" H 2600 2000 30  0001 C CNN
F 1 "GND" H 2600 1930 30  0001 C CNN
F 2 "" H 2600 2000 60  0000 C CNN
F 3 "" H 2600 2000 60  0000 C CNN
	1    2600 2000
	1    0    0    -1  
$EndComp
$Comp
L GND #PWR029
U 1 1 52CE4096
P 3100 2000
F 0 "#PWR029" H 3100 2000 30  0001 C CNN
F 1 "GND" H 3100 1930 30  0001 C CNN
F 2 "" H 3100 2000 60  0000 C CNN
F 3 "" H 3100 2000 60  0000 C CNN
	1    3100 2000
	1    0    0    -1  
$EndComp
Wire Wire Line
	3900 2100 3900 1200
Wire Wire Line
	3900 1200 3100 1200
Wire Wire Line
	3100 1200 3100 1400
Wire Wire Line
	4050 1000 4050 2100
Wire Wire Line
	2400 1000 4050 1000
Wire Wire Line
	2600 1000 2600 1400
Connection ~ 4700 6100
Connection ~ 3850 6100
Connection ~ 6700 3800
Connection ~ 7100 3050
Wire Wire Line
	2600 1800 2600 2000
Wire Wire Line
	3100 1800 3100 2000
Connection ~ 2600 1000
NoConn ~ 3600 2100
$Comp
L GND #PWR030
U 1 1 52CE4410
P 4650 900
F 0 "#PWR030" H 4650 900 30  0001 C CNN
F 1 "GND" H 4650 830 30  0001 C CNN
F 2 "" H 4650 900 60  0000 C CNN
F 3 "" H 4650 900 60  0000 C CNN
	1    4650 900 
	-1   0    0    1   
$EndComp
Wire Wire Line
	4650 900  4650 1100
$Comp
L ANTENNA ANT1
U 1 1 52CE3814
P 11000 3250
F 0 "ANT1" H 11000 3500 60  0000 C CNN
F 1 "ANTENNA" H 11000 3000 60  0000 C CNN
F 2 "" H 11000 3250 60  0000 C CNN
F 3 "" H 11000 3250 60  0000 C CNN
	1    11000 3250
	-1   0    0    -1  
$EndComp
$Comp
L GND #PWR031
U 1 1 52CE3821
P 10500 3500
F 0 "#PWR031" H 10500 3500 30  0001 C CNN
F 1 "GND" H 10500 3430 30  0001 C CNN
F 2 "" H 10500 3500 60  0000 C CNN
F 3 "" H 10500 3500 60  0000 C CNN
	1    10500 3500
	1    0    0    -1  
$EndComp
Wire Wire Line
	10400 3200 10700 3200
Wire Wire Line
	10500 3500 10500 3300
Wire Wire Line
	10500 3300 10700 3300
Text Label 5800 3350 0    60   ~ 0
RF_N
Text Label 5800 3500 0    60   ~ 0
RF_P
Text Label 9200 3200 0    60   ~ 0
ANT
Text Label 3900 1900 1    60   ~ 0
DCPL1
Text Label 4650 4900 3    60   ~ 0
X1
Text Label 5800 3950 0    60   ~ 0
X2
Text Label 4650 1950 1    60   ~ 0
RBIAS
Text Label 9900 6000 1    60   ~ 0
DRF
NoConn ~ 4350 2100
$Comp
L R R7
U 1 1 52D40ACF
P 1950 2900
F 0 "R7" H 2080 2950 60  0000 C CNN
F 1 "0" H 2100 2850 60  0000 C CNN
F 2 "" H 1950 2900 60  0000 C CNN
F 3 "" H 1950 2900 60  0000 C CNN
	1    1950 2900
	0    -1   -1   0   
$EndComp
$Comp
L C C15
U 1 1 52D40AE5
P 1500 3500
F 0 "C15" H 1550 3600 60  0000 L CNN
F 1 "NC" H 1550 3400 60  0000 L CNN
F 2 "" H 1500 3500 60  0000 C CNN
F 3 "" H 1500 3500 60  0000 C CNN
	1    1500 3500
	1    0    0    -1  
$EndComp
$Comp
L GND #PWR032
U 1 1 52D40AF2
P 1500 3900
F 0 "#PWR032" H 1500 3900 30  0001 C CNN
F 1 "GND" H 1500 3830 30  0001 C CNN
F 2 "" H 1500 3900 60  0000 C CNN
F 3 "" H 1500 3900 60  0000 C CNN
	1    1500 3900
	1    0    0    -1  
$EndComp
Wire Wire Line
	2800 2900 2200 2900
Wire Wire Line
	1500 3300 1500 2900
Connection ~ 1500 2900
Wire Wire Line
	1500 3700 1500 3900
NoConn ~ 4500 2100
Text Label 2400 2900 0    60   ~ 0
CKO
Text Notes 9100 6450 0    60   ~ 0
Red-orange
Text Notes 5500 6600 0    60   ~ 0
NX3225SA
Text Notes 5500 6750 0    60   ~ 0
Note: Cload should be 10-16 pF
Text Notes 8950 5400 0    60   ~ 0
10 mA, 40 mcd
$Comp
L TESTPOINT TP16
U 1 1 52D7DEB1
P 2700 5100
F 0 "TP16" H 2700 5350 60  0000 C CNN
F 1 "TESTPOINT" H 2700 5050 60  0001 C CNN
F 2 "" H 2700 5100 60  0000 C CNN
F 3 "" H 2700 5100 60  0000 C CNN
	1    2700 5100
	0    -1   -1   0   
$EndComp
Text Label 2900 5100 0    60   ~ 0
P0_1
Wire Wire Line
	2600 4900 3600 4900
Wire Wire Line
	3600 4900 3600 4700
Wire Wire Line
	2700 5100 3750 5100
Wire Wire Line
	3750 5100 3750 4700
NoConn ~ 2800 3500
Text HLabel 6700 2900 1    60   Input ~ 0
RF_VDD
Text HLabel 7100 2900 1    60   Input ~ 0
RF_VDD
Text HLabel 2400 1000 0    60   Input ~ 0
RF_VDD
Text HLabel 3850 5900 1    60   Input ~ 0
RF_VDD
Text HLabel 4700 5900 1    60   Input ~ 0
RF_VDD
$Comp
L TESTPOINT TP15
U 1 1 52E32291
P 2700 5400
F 0 "TP15" H 2700 5650 60  0000 C CNN
F 1 "TESTPOINT" H 2700 5350 60  0001 C CNN
F 2 "" H 2700 5400 60  0000 C CNN
F 3 "" H 2700 5400 60  0000 C CNN
	1    2700 5400
	0    -1   -1   0   
$EndComp
$Comp
L POWERED #FLG033
U 1 1 52E32319
P 8900 1200
F 0 "#FLG033" H 9100 1100 60  0001 C CNN
F 1 "POWERED" H 8900 1250 60  0000 C CNN
F 2 "" H 8900 1200 60  0000 C CNN
F 3 "" H 8900 1200 60  0000 C CNN
	1    8900 1200
	1    0    0    -1  
$EndComp
Text HLabel 8900 1600 3    60   Input ~ 0
RF_VDD
Wire Wire Line
	8900 1400 8900 1600
Wire Wire Line
	3900 4700 3900 5300
Wire Wire Line
	3900 5300 3600 5300
Wire Wire Line
	3600 5300 3600 5400
Wire Wire Line
	3600 5400 2700 5400
Text Label 2900 5400 0    60   ~ 0
P0_0
$EndSCHEMATC
