EESchema Schematic File Version 2
LIBS:r
LIBS:led
LIBS:powered
LIBS:micro_usb_b
LIBS:usb-a-s4
LIBS:device_sot
LIBS:pwr
LIBS:c
LIBS:kl25-32
LIBS:cc2543
LIBS:balun-smt6
LIBS:xtal-4
LIBS:testpoint
LIBS:varistor
LIBS:antenna
LIBS:switch
LIBS:ybox-cache
EELAYER 24 0
EELAYER END
$Descr A4 11693 8268
encoding utf-8
Sheet 3 3
Title ""
Date "9 may 2014"
Rev ""
Comp ""
Comment1 ""
Comment2 ""
Comment3 ""
Comment4 ""
$EndDescr
$Comp
L R R4
U 1 1 52CE0EA3
P 1600 2550
F 0 "R4" H 1730 2600 60  0000 C CNN
F 1 "68" H 1750 2500 60  0000 C CNN
F 2 "" H 1600 2550 60  0000 C CNN
F 3 "" H 1600 2550 60  0000 C CNN
	1    1600 2550
	1    0    0    -1  
$EndComp
$Comp
L LED D3
U 1 1 52CE0EA9
P 1600 3700
F 0 "D3" H 1600 3800 60  0000 C CNN
F 1 "LTST-C190KGKT" H 1600 3550 60  0000 C CNN
F 2 "" H 1600 3700 60  0000 C CNN
F 3 "" H 1600 3700 60  0000 C CNN
	1    1600 3700
	0    -1   1    0   
$EndComp
$Comp
L GND #PWR034
U 1 1 52CE0EAF
P 1600 4100
F 0 "#PWR034" H 1600 4100 30  0001 C CNN
F 1 "GND" H 1600 4030 30  0001 C CNN
F 2 "" H 1600 4100 60  0000 C CNN
F 3 "" H 1600 4100 60  0000 C CNN
	1    1600 4100
	1    0    0    -1  
$EndComp
Wire Wire Line
	1600 2800 1600 3500
Wire Wire Line
	1600 3900 1600 4100
Wire Wire Line
	1600 1500 1600 2300
Text Label 1600 2100 1    60   ~ 0
MCU_LED
$Comp
L C C13
U 1 1 52CE1B20
P 4300 4900
F 0 "C13" H 4350 5000 60  0000 L CNN
F 1 "100nF" H 4350 4800 60  0000 L CNN
F 2 "" H 4300 4900 60  0000 C CNN
F 3 "" H 4300 4900 60  0000 C CNN
	1    4300 4900
	1    0    0    -1  
$EndComp
Text HLabel 8350 4600 2    60   Input ~ 0
CLK
Wire Wire Line
	7950 4600 8350 4600
Text HLabel 2800 3750 0    60   BiDi ~ 0
DP
$Comp
L R R6
U 1 1 52CE1B3E
P 3250 4000
F 0 "R6" H 3380 4050 60  0000 C CNN
F 1 "33" H 3400 3950 60  0000 C CNN
F 2 "" H 3250 4000 60  0000 C CNN
F 3 "" H 3250 4000 60  0000 C CNN
	1    3250 4000
	0    -1   -1   0   
$EndComp
Text HLabel 2800 4000 0    60   BiDi ~ 0
DM
$Comp
L GND #PWR035
U 1 1 52CE1B6C
P 7250 5800
F 0 "#PWR035" H 7250 5800 30  0001 C CNN
F 1 "GND" H 7250 5730 30  0001 C CNN
F 2 "" H 7250 5800 60  0000 C CNN
F 3 "" H 7250 5800 60  0000 C CNN
	1    7250 5800
	1    0    0    -1  
$EndComp
Wire Wire Line
	7250 5600 7250 5800
$Comp
L TESTPOINT TP7
U 1 1 52CE1B8C
P 6050 6400
F 0 "TP7" H 6050 6650 60  0000 C CNN
F 1 "TESTPOINT" H 6050 6350 60  0001 C CNN
F 2 "" H 6050 6400 60  0000 C CNN
F 3 "" H 6050 6400 60  0000 C CNN
	1    6050 6400
	-1   0    0    1   
$EndComp
$Comp
L TESTPOINT TP8
U 1 1 52CE1B9B
P 6500 6550
F 0 "TP8" H 6500 6800 60  0000 C CNN
F 1 "TESTPOINT" H 6500 6500 60  0001 C CNN
F 2 "" H 6500 6550 60  0000 C CNN
F 3 "" H 6500 6550 60  0000 C CNN
	1    6500 6550
	-1   0    0    1   
$EndComp
$Comp
L TESTPOINT TP6
U 1 1 52CE1BAA
P 8700 4300
F 0 "TP6" H 8700 4550 60  0000 C CNN
F 1 "TESTPOINT" H 8700 4250 60  0001 C CNN
F 2 "" H 8700 4300 60  0000 C CNN
F 3 "" H 8700 4300 60  0000 C CNN
	1    8700 4300
	0    1    1    0   
$EndComp
Text Label 6050 6200 1    60   ~ 0
SWD_CLK
Text Label 6500 6200 1    60   ~ 0
SWD_DIO
Text Label 8150 4300 0    60   ~ 0
nRESET
Wire Wire Line
	6050 5600 6050 6400
Wire Wire Line
	6500 5600 6500 6550
$Comp
L GND #PWR036
U 1 1 52CE1C02
P 6950 5800
F 0 "#PWR036" H 6950 5800 30  0001 C CNN
F 1 "GND" H 6950 5730 30  0001 C CNN
F 2 "" H 6950 5800 60  0000 C CNN
F 3 "" H 6950 5800 60  0000 C CNN
	1    6950 5800
	1    0    0    -1  
$EndComp
Wire Wire Line
	6950 5600 6950 5800
$Comp
L GND #PWR037
U 1 1 52CE1C15
P 4700 5300
F 0 "#PWR037" H 4700 5300 30  0001 C CNN
F 1 "GND" H 4700 5230 30  0001 C CNN
F 2 "" H 4700 5300 60  0000 C CNN
F 3 "" H 4700 5300 60  0000 C CNN
	1    4700 5300
	1    0    0    -1  
$EndComp
$Comp
L GND #PWR038
U 1 1 52CE1C27
P 4300 5300
F 0 "#PWR038" H 4300 5300 30  0001 C CNN
F 1 "GND" H 4300 5230 30  0001 C CNN
F 2 "" H 4300 5300 60  0000 C CNN
F 3 "" H 4300 5300 60  0000 C CNN
	1    4300 5300
	1    0    0    -1  
$EndComp
Wire Wire Line
	4700 3700 4700 5300
Wire Wire Line
	4700 4600 4900 4600
Wire Wire Line
	4700 3700 4900 3700
Connection ~ 4700 4600
Wire Wire Line
	4900 4450 4300 4450
Wire Wire Line
	4300 4150 4300 4700
Wire Wire Line
	4300 5100 4300 5300
Wire Wire Line
	3900 4150 4900 4150
Connection ~ 4300 4450
$Comp
L C C12
U 1 1 52CE1C77
P 3900 4900
F 0 "C12" H 3950 5000 60  0000 L CNN
F 1 "2.2uF" H 3950 4800 60  0000 L CNN
F 2 "" H 3900 4900 60  0000 C CNN
F 3 "" H 3900 4900 60  0000 C CNN
	1    3900 4900
	1    0    0    -1  
$EndComp
$Comp
L C C11
U 1 1 52CE1C7D
P 3500 4900
F 0 "C11" H 3550 5000 60  0000 L CNN
F 1 "1uF" H 3550 4800 60  0000 L CNN
F 2 "" H 3500 4900 60  0000 C CNN
F 3 "" H 3500 4900 60  0000 C CNN
	1    3500 4900
	1    0    0    -1  
$EndComp
$Comp
L GND #PWR039
U 1 1 52CE1C83
P 3500 5300
F 0 "#PWR039" H 3500 5300 30  0001 C CNN
F 1 "GND" H 3500 5230 30  0001 C CNN
F 2 "" H 3500 5300 60  0000 C CNN
F 3 "" H 3500 5300 60  0000 C CNN
	1    3500 5300
	1    0    0    -1  
$EndComp
$Comp
L GND #PWR040
U 1 1 52CE1C89
P 3900 5300
F 0 "#PWR040" H 3900 5300 30  0001 C CNN
F 1 "GND" H 3900 5230 30  0001 C CNN
F 2 "" H 3900 5300 60  0000 C CNN
F 3 "" H 3900 5300 60  0000 C CNN
	1    3900 5300
	1    0    0    -1  
$EndComp
Wire Wire Line
	3900 5100 3900 5300
Wire Wire Line
	3500 5100 3500 5300
Wire Wire Line
	3900 3300 3900 4700
Connection ~ 4300 4150
Wire Wire Line
	2800 4300 4900 4300
Wire Wire Line
	3500 4300 3500 4700
$Comp
L 3V3 #PWR041
U 1 1 52CE1CE0
P 3900 3300
F 0 "#PWR041" H 3900 3260 30  0001 C CNN
F 1 "3V3" H 3900 3450 60  0000 C CNN
F 2 "" H 3900 3300 60  0000 C CNN
F 3 "" H 3900 3300 60  0000 C CNN
	1    3900 3300
	1    0    0    -1  
$EndComp
Connection ~ 3900 4150
$Comp
L R R5
U 1 1 52CE1DD3
P 3250 3750
F 0 "R5" H 3380 3800 60  0000 C CNN
F 1 "33" H 3400 3700 60  0000 C CNN
F 2 "" H 3250 3750 60  0000 C CNN
F 3 "" H 3250 3750 60  0000 C CNN
	1    3250 3750
	0    -1   -1   0   
$EndComp
Wire Wire Line
	3500 4000 4900 4000
Wire Wire Line
	4900 3850 3700 3850
Wire Wire Line
	3700 3850 3700 3750
Wire Wire Line
	3700 3750 3500 3750
Wire Wire Line
	2800 3750 3000 3750
Wire Wire Line
	2800 4000 3000 4000
$Comp
L C C14
U 1 1 52CE1E5B
P 7700 6400
F 0 "C14" H 7750 6500 60  0000 L CNN
F 1 "1uF" H 7750 6300 60  0000 L CNN
F 2 "" H 7700 6400 60  0000 C CNN
F 3 "" H 7700 6400 60  0000 C CNN
	1    7700 6400
	1    0    0    -1  
$EndComp
$Comp
L GND #PWR042
U 1 1 52CE1E61
P 7700 6800
F 0 "#PWR042" H 7700 6800 30  0001 C CNN
F 1 "GND" H 7700 6730 30  0001 C CNN
F 2 "" H 7700 6800 60  0000 C CNN
F 3 "" H 7700 6800 60  0000 C CNN
	1    7700 6800
	1    0    0    -1  
$EndComp
Wire Wire Line
	6800 5600 6800 6000
Wire Wire Line
	7700 5800 7700 6200
Wire Wire Line
	7700 6600 7700 6800
$Comp
L 3V3 #PWR043
U 1 1 52CE1ECA
P 7700 5800
F 0 "#PWR043" H 7700 5760 30  0001 C CNN
F 1 "3V3" H 7700 5950 60  0000 C CNN
F 2 "" H 7700 5800 60  0000 C CNN
F 3 "" H 7700 5800 60  0000 C CNN
	1    7700 5800
	1    0    0    -1  
$EndComp
Text HLabel 2800 4300 0    60   Input ~ 0
VBUS
Connection ~ 3500 4300
Text HLabel 6050 2300 1    60   3State ~ 0
DD
Text HLabel 6200 2300 1    60   3State ~ 0
DC
Text HLabel 5900 2300 1    60   Output ~ 0
RF_RESET
Text HLabel 6650 2300 1    60   Output ~ 0
MOSI
Text HLabel 6500 2300 1    60   Input ~ 0
MISO
Text HLabel 6800 2300 1    60   Output ~ 0
SCLK
Text HLabel 6950 2300 1    60   Output ~ 0
nSEL
Wire Wire Line
	6800 2300 6800 2550
Wire Wire Line
	6650 2300 6650 2550
Wire Wire Line
	6500 2300 6500 2550
NoConn ~ 7950 4450
Wire Wire Line
	6200 2300 6200 2550
Wire Wire Line
	6050 2300 6050 2550
Text Label 5900 6200 1    60   ~ 0
MCU_LED
NoConn ~ 7950 4150
$Comp
L KL25-32 U2
U 1 1 52CE1B07
P 6400 4050
F 0 "U2" H 5250 5300 60  0000 C CNN
F 1 "MKL26Z128VFM4" H 6400 4050 60  0000 C CNN
F 2 "~" H 7200 3900 60  0000 C CNN
F 3 "~" H 7200 3900 60  0000 C CNN
	1    6400 4050
	1    0    0    -1  
$EndComp
$Comp
L GND #PWR044
U 1 1 52CE45E9
P 9900 2300
F 0 "#PWR044" H 9900 2300 30  0001 C CNN
F 1 "GND" H 9900 2230 30  0001 C CNN
F 2 "" H 9900 2300 60  0000 C CNN
F 3 "" H 9900 2300 60  0000 C CNN
	1    9900 2300
	1    0    0    -1  
$EndComp
$Comp
L 3V3 #PWR045
U 1 1 52CE45EF
P 9500 1900
F 0 "#PWR045" H 9500 1860 30  0001 C CNN
F 1 "3V3" H 9500 2050 60  0000 C CNN
F 2 "" H 9500 1900 60  0000 C CNN
F 3 "" H 9500 1900 60  0000 C CNN
	1    9500 1900
	1    0    0    -1  
$EndComp
$Comp
L TESTPOINT TP5
U 1 1 52CE45F5
P 9900 2000
F 0 "TP5" H 9900 2250 60  0000 C CNN
F 1 "TESTPOINT" H 9900 1950 60  0001 C CNN
F 2 "" H 9900 2000 60  0000 C CNN
F 3 "" H 9900 2000 60  0000 C CNN
	1    9900 2000
	1    0    0    -1  
$EndComp
$Comp
L TESTPOINT TP9
U 1 1 52CE45FB
P 9500 2200
F 0 "TP9" H 9500 2450 60  0000 C CNN
F 1 "TESTPOINT" H 9500 2150 60  0001 C CNN
F 2 "" H 9500 2200 60  0000 C CNN
F 3 "" H 9500 2200 60  0000 C CNN
	1    9500 2200
	-1   0    0    1   
$EndComp
Wire Wire Line
	9900 2000 9900 2300
Wire Wire Line
	9500 1900 9500 2200
Text Label 4100 3850 0    60   ~ 0
MCU_DP
Text Label 4100 4000 0    60   ~ 0
MCU_DM
Wire Wire Line
	5900 6400 5900 5600
Text Label 1600 3300 1    60   ~ 0
DMCU
Wire Wire Line
	6800 6000 7700 6000
Connection ~ 7700 6000
NoConn ~ 6200 5600
NoConn ~ 6350 5600
NoConn ~ 6650 5600
Wire Wire Line
	8700 4300 7950 4300
Wire Wire Line
	5900 2300 5900 2550
Wire Wire Line
	6950 2300 6950 2550
NoConn ~ 6350 2550
Text Notes 1100 3750 0    60   ~ 0
Green
Text Notes 1950 2600 0    60   ~ 0
19 mA, 33 mcd
$Comp
L TESTPOINT TP12
U 1 1 52D7DB78
P 8900 3300
F 0 "TP12" H 8900 3550 60  0000 C CNN
F 1 "TESTPOINT" H 8900 3250 60  0001 C CNN
F 2 "" H 8900 3300 60  0000 C CNN
F 3 "" H 8900 3300 60  0000 C CNN
	1    8900 3300
	1    0    0    -1  
$EndComp
$Comp
L TESTPOINT TP11
U 1 1 52D7DB87
P 8600 3300
F 0 "TP11" H 8600 3550 60  0000 C CNN
F 1 "TESTPOINT" H 8600 3250 60  0001 C CNN
F 2 "" H 8600 3300 60  0000 C CNN
F 3 "" H 8600 3300 60  0000 C CNN
	1    8600 3300
	1    0    0    -1  
$EndComp
$Comp
L TESTPOINT TP13
U 1 1 52D7DB96
P 9200 3300
F 0 "TP13" H 9200 3550 60  0000 C CNN
F 1 "TESTPOINT" H 9200 3250 60  0001 C CNN
F 2 "" H 9200 3300 60  0000 C CNN
F 3 "" H 9200 3300 60  0000 C CNN
	1    9200 3300
	1    0    0    -1  
$EndComp
Wire Wire Line
	7950 3550 8600 3550
Wire Wire Line
	8600 3550 8600 3300
Wire Wire Line
	7950 3700 8900 3700
Wire Wire Line
	8900 3700 8900 3300
Wire Wire Line
	7950 3850 9200 3850
Wire Wire Line
	9200 3850 9200 3300
Text Label 8200 3550 0    60   ~ 0
PTC3
Text Label 8200 3700 0    60   ~ 0
PTC2
Text Label 8200 3850 0    60   ~ 0
PTC1
Wire Wire Line
	4900 3550 4300 3550
Wire Wire Line
	4300 3550 4300 3300
Text Label 4500 3550 0    60   ~ 0
PTE0
$Comp
L TESTPOINT TP14
U 1 1 52D7DCDE
P 9500 3300
F 0 "TP14" H 9500 3550 60  0000 C CNN
F 1 "TESTPOINT" H 9500 3250 60  0001 C CNN
F 2 "" H 9500 3300 60  0000 C CNN
F 3 "" H 9500 3300 60  0000 C CNN
	1    9500 3300
	1    0    0    -1  
$EndComp
Wire Wire Line
	7950 4000 9500 4000
Wire Wire Line
	9500 4000 9500 3300
Text Label 8200 4000 0    60   ~ 0
PTB1
Text HLabel 4300 3300 1    60   Input ~ 0
RF_VDD
$EndSCHEMATC
