EESchema Schematic File Version 2
LIBS:r
LIBS:led
LIBS:powered
LIBS:micro_usb_b
LIBS:usb-a-s4
LIBS:device_sot
LIBS:pwr
LIBS:c
LIBS:kl25-32
LIBS:cc2543
LIBS:balun-smt6
LIBS:xtal-4
LIBS:testpoint
LIBS:varistor
LIBS:antenna
LIBS:switch
LIBS:ybox-cache
EELAYER 24 0
EELAYER END
$Descr A4 11693 8268
encoding utf-8
Sheet 1 3
Title "Anelok Y-Box"
Date "25 jan 2014"
Rev ""
Comp ""
Comment1 ""
Comment2 ""
Comment3 ""
Comment4 ""
$EndDescr
$Comp
L ZX62-B-5PA CON1
U 1 1 526AF038
P 6100 1650
F 0 "CON1" H 6100 2150 60  0000 C CNN
F 1 "ZX62-B-5PA" H 6100 1150 60  0000 C CNN
F 2 "" H 6100 1650 60  0000 C CNN
F 3 "" H 6100 1650 60  0000 C CNN
	1    6100 1650
	0    -1   -1   0   
$EndComp
$Comp
L ZX62-B-5PA CON2
U 1 1 526AF047
P 2600 3150
F 0 "CON2" H 2800 2650 60  0000 C CNN
F 1 "ZX62-B-5PA" H 2600 3650 60  0000 C CNN
F 2 "" H 2600 3150 60  0000 C CNN
F 3 "" H 2600 3150 60  0000 C CNN
	1    2600 3150
	-1   0    0    1   
$EndComp
NoConn ~ 3200 3000
Text Label 4800 2850 0    60   ~ 0
GND
Text Label 4800 3150 0    60   ~ 0
DPX
Text Label 4800 3300 0    60   ~ 0
DMX
Text Label 4800 3450 0    60   ~ 0
VBUS
NoConn ~ 6250 2250
$Comp
L GND #PWR01
U 1 1 526AF1A7
P 6800 1300
F 0 "#PWR01" H 6800 1300 30  0001 C CNN
F 1 "GND" H 6800 1230 30  0001 C CNN
F 2 "" H 6800 1300 60  0000 C CNN
F 3 "" H 6800 1300 60  0000 C CNN
	1    6800 1300
	1    0    0    -1  
$EndComp
$Comp
L GND #PWR02
U 1 1 526AF1B4
P 1850 3650
F 0 "#PWR02" H 1850 3650 30  0001 C CNN
F 1 "GND" H 1850 3580 30  0001 C CNN
F 2 "" H 1850 3650 60  0000 C CNN
F 3 "" H 1850 3650 60  0000 C CNN
	1    1850 3650
	1    0    0    -1  
$EndComp
$Comp
L GND #PWR03
U 1 1 526AF1BA
P 8550 3650
F 0 "#PWR03" H 8550 3650 30  0001 C CNN
F 1 "GND" H 8550 3580 30  0001 C CNN
F 2 "" H 8550 3650 60  0000 C CNN
F 3 "" H 8550 3650 60  0000 C CNN
	1    8550 3650
	1    0    0    -1  
$EndComp
$Comp
L DIODE-SOT-AXC D2
U 1 1 526AF4D2
P 4300 3450
F 0 "D2" H 4450 3500 60  0000 C CNN
F 1 "MMBD4448HW" H 4250 3300 60  0000 C CNN
F 2 "" H 4300 3450 60  0000 C CNN
F 3 "" H 4300 3450 60  0000 C CNN
	1    4300 3450
	-1   0    0    -1  
$EndComp
Text Label 3400 3450 0    60   ~ 0
VBUS_OUT
$Comp
L POWERED #FLG04
U 1 1 526AF660
P 1850 2450
F 0 "#FLG04" H 2050 2350 60  0001 C CNN
F 1 "POWERED" H 1850 2500 60  0000 C CNN
F 2 "" H 1850 2450 60  0000 C CNN
F 3 "" H 1850 2450 60  0000 C CNN
	1    1850 2450
	1    0    0    -1  
$EndComp
$Comp
L USB_A_S4 CON3
U 1 1 52CE1000
P 7800 3200
F 0 "CON3" H 7550 2800 60  0000 C CNN
F 1 "48258-0002" H 7750 3650 60  0000 C CNN
F 2 "~" H 7800 3200 60  0000 C CNN
F 3 "~" H 7800 3200 60  0000 C CNN
	1    7800 3200
	1    0    0    1   
$EndComp
$Sheet
S 7100 4600 1700 1800
U 52CE0EBA
F0 "RF" 50
F1 "rf.sch" 50
F2 "RF_RESET" I L 7100 4800 60 
F3 "DD" T L 7100 5000 60 
F4 "DC" T L 7100 5150 60 
F5 "MOSI" I L 7100 5350 60 
F6 "MISO" O L 7100 5500 60 
F7 "nSEL" I L 7100 5800 60 
F8 "SCLK" I L 7100 5650 60 
F9 "CLK" O L 7100 6000 60 
F10 "RF_VDD" I R 8800 5000 60 
$EndSheet
Text Label 6100 2600 1    60   ~ 0
DP
Text Label 5950 2600 1    60   ~ 0
DM
$Sheet
S 4400 4600 2000 1800
U 52CE0DAB
F0 "USB" 70
F1 "usb.sch" 50
F2 "CLK" I R 6400 6000 60 
F3 "DP" B L 4400 5600 60 
F4 "DM" B L 4400 5800 60 
F5 "VBUS" I L 4400 5300 60 
F6 "DD" T R 6400 5000 60 
F7 "DC" T R 6400 5150 60 
F8 "RF_RESET" O R 6400 4800 60 
F9 "MOSI" O R 6400 5350 60 
F10 "MISO" I R 6400 5500 60 
F11 "SCLK" O R 6400 5650 60 
F12 "nSEL" O R 6400 5800 60 
F13 "RF_VDD" I R 6400 6200 60 
$EndSheet
Text Label 1700 5600 0    60   ~ 0
DP
Text Label 1700 5800 0    60   ~ 0
DM
Text Label 1700 5300 0    60   ~ 0
VBUS
$Comp
L EZJ-Z0V80010 V1
U 1 1 52CE324E
P 2400 6450
F 0 "V1" V 2300 6450 60  0000 C CNN
F 1 "EZJ-Z0V80010" V 2500 6450 60  0000 C CNN
F 2 "" H 2400 6450 60  0000 C CNN
F 3 "" H 2400 6450 60  0000 C CNN
	1    2400 6450
	1    0    0    -1  
$EndComp
$Comp
L EZJ-Z0V80010 V2
U 1 1 52CE3293
P 2800 6450
F 0 "V2" V 2700 6450 60  0000 C CNN
F 1 "EZJ-Z0V80010" V 2900 6450 60  0000 C CNN
F 2 "" H 2800 6450 60  0000 C CNN
F 3 "" H 2800 6450 60  0000 C CNN
	1    2800 6450
	1    0    0    -1  
$EndComp
$Comp
L EZJ-Z0V80010 V3
U 1 1 52CE32D8
P 3200 6450
F 0 "V3" V 3100 6450 60  0000 C CNN
F 1 "EZJ-Z0V80010" V 3300 6450 60  0000 C CNN
F 2 "" H 3200 6450 60  0000 C CNN
F 3 "" H 3200 6450 60  0000 C CNN
	1    3200 6450
	1    0    0    -1  
$EndComp
$Comp
L GND #PWR05
U 1 1 52CE33A5
P 2400 6900
F 0 "#PWR05" H 2400 6900 30  0001 C CNN
F 1 "GND" H 2400 6830 30  0001 C CNN
F 2 "" H 2400 6900 60  0000 C CNN
F 3 "" H 2400 6900 60  0000 C CNN
	1    2400 6900
	1    0    0    -1  
$EndComp
$Comp
L GND #PWR06
U 1 1 52CE33AB
P 2800 6900
F 0 "#PWR06" H 2800 6900 30  0001 C CNN
F 1 "GND" H 2800 6830 30  0001 C CNN
F 2 "" H 2800 6900 60  0000 C CNN
F 3 "" H 2800 6900 60  0000 C CNN
	1    2800 6900
	1    0    0    -1  
$EndComp
$Comp
L GND #PWR07
U 1 1 52CE33B1
P 3200 6900
F 0 "#PWR07" H 3200 6900 30  0001 C CNN
F 1 "GND" H 3200 6830 30  0001 C CNN
F 2 "" H 3200 6900 60  0000 C CNN
F 3 "" H 3200 6900 60  0000 C CNN
	1    3200 6900
	1    0    0    -1  
$EndComp
Wire Wire Line
	4500 3450 7200 3450
Wire Wire Line
	3200 3300 7200 3300
Wire Wire Line
	3200 3150 7200 3150
Wire Wire Line
	3200 2850 5200 2850
Wire Wire Line
	5200 2850 5200 3000
Wire Wire Line
	5200 3000 7200 3000
Wire Wire Line
	5800 2250 5800 3450
Connection ~ 5800 3450
Wire Wire Line
	6400 2250 6400 3000
Connection ~ 6400 3000
Wire Wire Line
	5800 1100 5800 900 
Wire Wire Line
	5800 900  6800 900 
Wire Wire Line
	6800 900  6800 1300
Wire Wire Line
	6400 1100 6400 900 
Connection ~ 6400 900 
Wire Wire Line
	6300 1100 6300 900 
Connection ~ 6300 900 
Wire Wire Line
	6150 1100 6150 900 
Connection ~ 6150 900 
Wire Wire Line
	6050 1100 6050 900 
Connection ~ 6050 900 
Wire Wire Line
	5900 1100 5900 900 
Connection ~ 5900 900 
Wire Wire Line
	1850 2650 1850 3650
Wire Wire Line
	1850 2850 2050 2850
Wire Wire Line
	2050 2950 1850 2950
Connection ~ 1850 2950
Wire Wire Line
	2050 3100 1850 3100
Connection ~ 1850 3100
Wire Wire Line
	2050 3200 1850 3200
Connection ~ 1850 3200
Wire Wire Line
	2050 3350 1850 3350
Connection ~ 1850 3350
Wire Wire Line
	2050 3450 1850 3450
Connection ~ 1850 3450
Wire Wire Line
	8350 3000 8550 3000
Wire Wire Line
	8550 3000 8550 3650
Wire Wire Line
	8350 3450 8550 3450
Connection ~ 8550 3450
Wire Wire Line
	3200 3450 4100 3450
Connection ~ 1850 2850
Wire Wire Line
	8350 3150 8550 3150
Connection ~ 8550 3150
Wire Wire Line
	8350 3300 8550 3300
Connection ~ 8550 3300
Wire Wire Line
	6400 5500 7100 5500
Wire Wire Line
	6400 5350 7100 5350
Wire Wire Line
	6400 5650 7100 5650
Wire Wire Line
	6400 5800 7100 5800
Wire Wire Line
	6400 5150 7100 5150
Wire Wire Line
	6400 5000 7100 5000
Wire Wire Line
	6400 4800 7100 4800
Wire Wire Line
	6400 6000 7100 6000
Wire Wire Line
	5950 2800 5950 2250
Wire Wire Line
	6100 2800 6100 2250
Wire Wire Line
	1500 5300 4400 5300
Wire Wire Line
	1500 5600 4400 5600
Wire Wire Line
	1500 5800 4400 5800
Wire Wire Line
	2400 6300 2400 5300
Connection ~ 2400 5300
Wire Wire Line
	2800 6300 2800 5600
Connection ~ 2800 5600
Wire Wire Line
	3200 6300 3200 5800
Connection ~ 3200 5800
Wire Wire Line
	2400 6600 2400 6900
Wire Wire Line
	2800 6600 2800 6900
Wire Wire Line
	3200 6600 3200 6900
$Comp
L POWERED #FLG08
U 1 1 52CE3B05
P 3200 4900
F 0 "#FLG08" H 3400 4800 60  0001 C CNN
F 1 "POWERED" H 3200 4950 60  0000 C CNN
F 2 "" H 3200 4900 60  0000 C CNN
F 3 "" H 3200 4900 60  0000 C CNN
	1    3200 4900
	1    0    0    -1  
$EndComp
Wire Wire Line
	3200 5100 3200 5300
Connection ~ 3200 5300
$Comp
L TESTPOINT TP17
U 1 1 52D9BCFD
P 3900 5100
F 0 "TP17" H 3900 5350 60  0000 C CNN
F 1 "TESTPOINT" H 3900 5050 60  0001 C CNN
F 2 "" H 3900 5100 60  0000 C CNN
F 3 "" H 3900 5100 60  0000 C CNN
	1    3900 5100
	1    0    0    -1  
$EndComp
Wire Wire Line
	3900 5100 3900 5300
Connection ~ 3900 5300
$Comp
L SW-SPDT-S4 SW1
U 1 1 52E29D00
P 9750 5000
F 0 "SW1" H 9600 5250 60  0000 C CNN
F 1 "CUS-12B" H 10000 4550 60  0000 L CNN
F 2 "~" H 9750 5000 60  0000 C CNN
F 3 "~" H 9750 5000 60  0000 C CNN
	1    9750 5000
	1    0    0    -1  
$EndComp
Wire Wire Line
	8800 5000 9200 5000
$Comp
L 3V3 #PWR09
U 1 1 52E2A6FA
P 10500 4700
F 0 "#PWR09" H 10500 4660 30  0001 C CNN
F 1 "3V3" H 10500 4850 60  0000 C CNN
F 2 "" H 10500 4700 60  0000 C CNN
F 3 "" H 10500 4700 60  0000 C CNN
	1    10500 4700
	1    0    0    -1  
$EndComp
Wire Wire Line
	10500 4700 10500 4900
Wire Wire Line
	10500 4900 10300 4900
$Comp
L GND #PWR010
U 1 1 52E2A804
P 9600 5900
F 0 "#PWR010" H 9600 5900 30  0001 C CNN
F 1 "GND" H 9600 5830 30  0001 C CNN
F 2 "" H 9600 5900 60  0000 C CNN
F 3 "" H 9600 5900 60  0000 C CNN
	1    9600 5900
	1    0    0    -1  
$EndComp
Wire Wire Line
	9600 5500 9600 5900
$Comp
L GND #PWR011
U 1 1 52E2AA18
P 10500 5300
F 0 "#PWR011" H 10500 5300 30  0001 C CNN
F 1 "GND" H 10500 5230 30  0001 C CNN
F 2 "" H 10500 5300 60  0000 C CNN
F 3 "" H 10500 5300 60  0000 C CNN
	1    10500 5300
	1    0    0    -1  
$EndComp
Wire Wire Line
	10300 5100 10500 5100
Wire Wire Line
	10500 5100 10500 5300
Wire Wire Line
	9900 5700 9900 5500
Wire Wire Line
	9600 5700 9900 5700
Connection ~ 9600 5700
Wire Wire Line
	9700 5500 9700 5700
Connection ~ 9700 5700
Wire Wire Line
	9800 5500 9800 5700
Connection ~ 9800 5700
Wire Wire Line
	9000 5000 9000 6600
Wire Wire Line
	9000 6600 6600 6600
Wire Wire Line
	6600 6600 6600 6200
Wire Wire Line
	6600 6200 6400 6200
Connection ~ 9000 5000
$EndSCHEMATC
